<svg width="14" height="14" viewBox="0 0 14 14" fill="none" xmlns="http://www.w3.org/2000/svg">
<path d="M0 5.10525C0 3.81483 -4.07821e-08 3.1703 0.400947 2.76936C0.801895 2.36841 1.44642 2.36841 2.73684 2.36841H10.9474C12.2378 2.36841 12.8823 2.36841 13.2833 2.76936C13.6842 3.1703 13.6842 3.81483 13.6842 5.10525C13.6842 5.42751 13.6842 5.58899 13.5843 5.68957C13.4837 5.78946 13.3216 5.78946 13 5.78946H0.684211C0.361947 5.78946 0.200474 5.78946 0.0998947 5.68957C-6.11732e-08 5.58899 0 5.42683 0 5.10525ZM0 11.2631C0 12.5536 -4.07821e-08 13.1981 0.400947 13.599C0.801895 14 1.44642 14 2.73684 14H10.9474C12.2378 14 12.8823 14 13.2833 13.599C13.6842 13.1981 13.6842 12.5536 13.6842 11.2631V7.84209C13.6842 7.51983 13.6842 7.35836 13.5843 7.25778C13.4837 7.15788 13.3216 7.15788 13 7.15788H0.684211C0.361947 7.15788 0.200474 7.15788 0.0998947 7.25778C-6.11732e-08 7.35836 0 7.52051 0 7.84209V11.2631Z" fill="#333333"/>
<path d="M3.42188 1V3.05263M10.264 1V3.05263" stroke="#333333" stroke-width="1.36842" stroke-linecap="round"/>
</svg>
