<svg width="21" height="21" viewBox="0 0 21 21" fill="none" xmlns="http://www.w3.org/2000/svg">
<circle cx="10.5" cy="10.5" r="10" fill="#A03A43"/>
<path d="M8.46919 11.8216L8.94144 11.2085H7.95361L8.46919 11.8216Z" fill="#F6F6F6"/>
<path d="M7.27856 8.6499H8.31188L7.92844 9.10699C7.87504 9.18474 7.84848 9.2778 7.85278 9.37202C7.85708 9.46625 7.89201 9.5565 7.95227 9.62906C8.1689 9.84569 9.25204 10.3418 9.25204 10.3418C9.25204 10.3418 9.44051 10.4479 9.76978 10.1663L9.43401 10.6515L8.15374 10.2183C8.0681 10.1922 7.97731 10.1879 7.88958 10.2057C7.80184 10.2234 7.7199 10.2628 7.65116 10.3201C7.47136 10.5042 7.43453 10.5584 7.43453 10.5714L7.27856 10.2075L7.6165 9.69405C7.69895 9.59928 7.74065 9.4758 7.73254 9.35045C7.72443 9.22509 7.66715 9.10802 7.57318 9.02467C7.24173 8.6499 7.27856 8.6499 7.27856 8.6499Z" fill="#F6F6F6"/>
<path d="M7.81299 7.65973L7.89097 7.11816H8.30907L7.81299 7.65973Z" fill="#F6F6F6"/>
<path d="M9.32422 7.76608L9.68599 7.05121L10.9598 7.04688L9.32422 7.76608Z" fill="#F6F6F6"/>
<path d="M15.2605 11.6828C14.8619 14.4404 12.6718 15.3091 10.3387 15.9438C9.81266 16.0796 9.30388 16.2751 8.82231 16.5266L8.70966 16.5872L8.50386 16.7085C8.45404 16.741 8.40421 16.7692 8.35656 16.8017C7.66352 17.2223 7.12077 17.8507 6.8055 18.5975L6.78384 18.6538C6.78384 18.6755 6.77084 18.695 6.76434 18.7123C6.76289 18.726 6.76289 18.7398 6.76434 18.7535C6.76434 18.7752 6.75351 18.786 6.75351 18.786C6.4459 18.4502 6.51955 17.9195 6.6452 17.5144C6.70449 17.3239 6.78061 17.139 6.87266 16.962C6.78204 16.9041 6.71399 16.817 6.67986 16.715C6.53688 16.2818 6.92465 15.5257 7.20843 15.0687C7.23442 15.0253 7.25825 14.9842 7.28425 14.9452L7.3644 14.8217C7.3904 14.7827 7.40989 14.7502 7.42939 14.7264L7.46188 14.6809C8.23525 13.5977 9.54801 12.6684 11.3027 11.1932C14.5889 8.43334 12.6393 5.37022 12.4985 5.15576C16.166 8.95758 11.71 13.3616 11.71 13.3616C15.2518 11.7737 14.8424 8.65213 14.8186 8.47667C14.8554 8.61747 15.4251 10.5476 15.2605 11.6828Z" fill="#F6F6F6"/>
<path d="M6.1326 15.0469C5.54382 14.522 5.05437 13.8953 4.6877 13.1969C4.32002 12.4927 4.07879 11.7294 3.97499 10.9418C3.92733 10.5465 3.91645 10.1477 3.9425 9.75038C3.9425 9.65073 3.9425 9.55108 3.95983 9.45143L4.00099 9.15682L4.05514 8.86004C4.07247 8.76255 4.10063 8.66507 4.1223 8.56759C4.40558 7.38818 4.99928 6.30605 5.8418 5.43345C6.68432 4.56086 7.74497 3.92959 8.91372 3.60514C10.0825 3.28068 11.3168 3.27485 12.4885 3.58826C13.6603 3.90167 14.7269 4.52289 15.5776 5.38749C16.1457 5.96243 16.6052 6.63543 16.9337 7.37397C17.2604 8.11207 17.4555 8.90169 17.5099 9.70705L17.5229 10.0082C17.5305 10.1084 17.5305 10.209 17.5229 10.3093C17.5229 10.5107 17.5012 10.71 17.4882 10.9115L17.3886 11.5051C17.3518 11.7022 17.2889 11.8928 17.2391 12.0878C16.7712 13.6298 15.7739 14.957 14.4229 15.8355C13.0745 16.6862 11.4673 17.0295 9.88893 16.8038C10.2778 16.8439 10.6698 16.8439 11.0587 16.8038L11.349 16.7843C11.4465 16.7843 11.5418 16.7518 11.6371 16.7366C11.8293 16.7097 12.0196 16.6707 12.2068 16.6196C12.9595 16.4325 13.6716 16.1095 14.3081 15.6665C15.5817 14.7887 16.5063 13.4914 16.9207 12.0011C16.9618 11.8148 17.016 11.6307 17.0485 11.4422L17.1286 10.8768L17.1525 10.3049C17.1589 10.2105 17.1589 10.1156 17.1525 10.0212L17.1351 9.73521C17.0746 8.97612 16.8817 8.23346 16.5654 7.54077C16.2501 6.84852 15.8144 6.21774 15.2786 5.67777C14.7411 5.14057 14.1144 4.70078 13.4265 4.37801C12.0393 3.72283 10.4639 3.5838 8.98343 3.98591C7.49994 4.38855 6.20404 5.29744 5.32025 6.55512C4.88281 7.18587 4.56082 7.88927 4.36925 8.63258C4.34542 8.72573 4.3151 8.81671 4.2956 8.90986L4.24794 9.18498L4.20245 9.47093C4.18512 9.56408 4.18729 9.66156 4.17862 9.75688L4.15912 10.0515V10.1966V10.3396C4.15912 10.5324 4.17429 10.7252 4.18729 10.918C4.25662 11.6903 4.46197 12.4442 4.79384 13.1449C5.12979 13.8498 5.58241 14.4929 6.1326 15.0469Z" fill="#F6F6F6"/>
</svg>
